1 10 20
100 200 125
201 210 89
900 1000 174
1 1 1
1 2 2
2 1 2
123 123 47
10 1 20
60 34 113
1223 29043 308
23409 93248 351
2034 78643 351
74356 2734 340
8437 43875 324
3984 48973 324
84379 3847 351
348 3455 217
234 4354 238
34895 93485 351
34235 586 308
4 56834 340
5 45830 324
2342 435 183
563456 6574 470
3534 43545 324
34553 34535 174
564654 43534 470
345345 345435 273
345 45455 324
34543 34534 174
6765 243 262
78654 32254 351
7676 23456 279
376654 76547 443
456 876 179
3456 356 217
3578 3573 101
3456 3576 194
356 5677 238
456543 3456 449
3456 3456 119
6 8 17
234 465 144
3245 345 217
76654 3456 340
7637 3564 262
3456 3546 181
768 6784 262
3456 345637 443
345 76565 340
435645 3456 449
34566 678 311
1 744 171
24 56 113
21331 13423 279
1234 1243 133
234 234 22
23 23 16
1234 1234 133
23 234 128
657 456 145
3425 345 217
1 132 122
43 3124 217
425 345 134
567 567 62
345 345 126
3245 2314 217
234 3214 217
2134 213 182
1343 234 182
1234 23443 279
1234 3454 217
7865 5676 262
23412 345 279
1 2314 183
345 346 126
3245 234 217
2345 46576 324
80879 6578 351
5674 2465 238
768 6578 262
3456 7685 262
2345 4675 238
2345 2345 152
467 7568 262
324 5647 238
2345 5764 238
2435 2345 165
567 678 145
324 678 145
2345 567 183
423565 5465 449
3456 2456 217
2564 677568 509
2345 567 183
3452 657 217
34245 5674 311
2435 567654 470
243 6765 262
